Evo_Geno_Lab4_Ben_Earle
…
view(report_09_12_2020)

There have been several changes in the format of the daily reports from March 12th to September 12th. The first being that they changed the headers for province_state and country_region to underscores, making them more compatible with R. They also added several columns. They now include the number of active cases vs number of recovered cases and then a column for both of these numbers combined. They also now have columns for incidence rates and case-fatality ratios for each region.

##2

report_03_12_2020 %>% group_by(Country_Region) %>% summarize(Deaths)

## `summarise()` regrouping output by 'Country_Region' (override with `.groups` argument)

## # A tibble: 218 x 2
## # Groups:   Country_Region [118]
##    Country_Region Deaths
##    <chr>           <dbl>
##  1 Afghanistan         0
##  2 Albania             1
##  3 Algeria             1
##  4 Andorra             0
##  5 Argentina           1
##  6 Armenia             0
##  7 Australia           2
##  8 Australia           0
##  9 Australia           0
## 10 Australia           0
## #  with 208 more rows

report_09_12_2020 %>% group_by(Country_Region) %>% summarize(Deaths)

## `summarise()` regrouping output by 'Country_Region' (override with `.groups` argument)

## # A tibble: 3,954 x 2
## # Groups:   Country_Region [188]
##    Country_Region      Deaths
##    <chr>                <dbl>
##  1 Afghanistan           1420
##  2 Albania                330
##  3 Algeria               1605
##  4 Andorra                 53
##  5 Angola                 132
##  6 Antigua and Barbuda      3
##  7 Argentina            11263
##  8 Armenia                911
##  9 Australia                3
## 10 Australia               52
## #  with 3,944 more rows

3

report_03_12_2020 %>% filter(!is.na(Country_Region)) %>% group_by(Province_State) %>% filter(Country_Region == "US")%>% summarize(Deaths) 

## `summarise()` ungrouping output (override with `.groups` argument)

## # A tibble: 52 x 2
##    Province_State       Deaths
##    <chr>                 <dbl>
##  1 Alaska                    0
##  2 Arizona                   0
##  3 Arkansas                  0
##  4 California                4
##  5 Colorado                  0
##  6 Connecticut               0
##  7 Delaware                  0
##  8 Diamond Princess          0
##  9 District of Columbia      0
## 10 Florida                   2
## #  with 42 more rows

report_09_12_2020 %>% filter(!is.na(Country_Region)) %>% group_by(Province_State) %>% filter(Country_Region == "US")%>% summarize(Deaths) 

## `summarise()` regrouping output by 'Province_State' (override with `.groups` argument)

## # A tibble: 3,270 x 2
## # Groups:   Province_State [58]
##    Province_State Deaths
##    <chr>           <dbl>
##  1 Alabama            23
##  2 Alabama            43
##  3 Alabama             7
##  4 Alabama             6
##  5 Alabama            13
##  6 Alabama            13
##  7 Alabama            37
##  8 Alabama            31
##  9 Alabama            40
## 10 Alabama            11
## #  with 3,260 more rows

##4

report_03_12_2020_plot <- report_03_12_2020 %>% filter(!is.na(Country_Region)) %>% group_by(Province_State) %>% filter(Country_Region == "US")%>% summarize(Deaths) %>% arrange(desc(Deaths)) %>% slice_head(n=10)

## `summarise()` ungrouping output (override with `.groups` argument)

report_09_12_2020 %>% filter(!is.na(Country_Region)) %>% filter(Country_Region == "US")%>% group_by(Province_State) %>% summarize(Deaths) %>% arrange(desc(Deaths)) %>% slice_head(n=10)

## `summarise()` regrouping output by 'Province_State' (override with `.groups` argument)

## # A tibble: 502 x 2
## # Groups:   Province_State [58]
##    Province_State Deaths
##    <chr>           <dbl>
##  1 Alabama           310
##  2 Alabama           277
##  3 Alabama           166
##  4 Alabama           133
##  5 Alabama            96
##  6 Alabama            83
##  7 Alabama            76
##  8 Alabama            65
##  9 Alabama            49
## 10 Alabama            44
## #  with 492 more rows
…
